^C:\USERS\RYSZARD\DOCUMENTS\VISUAL STUDIO 2017\PROJECTS\SMSPARSER\SMSPARSER\SMSPARSER.CPP|C:\USERS\RYSZARD\DOCUMENTS\VISUAL STUDIO 2017\PROJECTS\SMSPARSER\SMSPARSER\WRAPP.CPP
C:\USERS\RYSZARD\DOCUMENTS\VISUAL STUDIO 2017\PROJECTS\SMSPARSER\SMSPARSER\DEBUG\VC141.PDB
C:\USERS\RYSZARD\DOCUMENTS\VISUAL STUDIO 2017\PROJECTS\SMSPARSER\SMSPARSER\DEBUG\VC141.IDB
C:\USERS\RYSZARD\DOCUMENTS\VISUAL STUDIO 2017\PROJECTS\SMSPARSER\SMSPARSER\DEBUG\SMSPARSER.OBJ
C:\USERS\RYSZARD\DOCUMENTS\VISUAL STUDIO 2017\PROJECTS\SMSPARSER\SMSPARSER\DEBUG\WRAPP.OBJ
^C:\USERS\RYSZARD\DOCUMENTS\VISUAL STUDIO 2017\PROJECTS\SMSPARSER\SMSPARSER\SMSPARSER.CPP
C:\USERS\RYSZARD\DOCUMENTS\VISUAL STUDIO 2017\PROJECTS\SMSPARSER\SMSPARSER\DEBUG\VC141.PDB
C:\USERS\RYSZARD\DOCUMENTS\VISUAL STUDIO 2017\PROJECTS\SMSPARSER\SMSPARSER\DEBUG\VC141.IDB
C:\USERS\RYSZARD\DOCUMENTS\VISUAL STUDIO 2017\PROJECTS\SMSPARSER\SMSPARSER\DEBUG\SMSPARSER.OBJ
^C:\USERS\RYSZARD\DOCUMENTS\VISUAL STUDIO 2017\PROJECTS\SMSPARSER\SMSPARSER\WRAPP.CPP
C:\USERS\RYSZARD\DOCUMENTS\VISUAL STUDIO 2017\PROJECTS\SMSPARSER\SMSPARSER\DEBUG\VC141.PDB
C:\USERS\RYSZARD\DOCUMENTS\VISUAL STUDIO 2017\PROJECTS\SMSPARSER\SMSPARSER\DEBUG\VC141.IDB
C:\USERS\RYSZARD\DOCUMENTS\VISUAL STUDIO 2017\PROJECTS\SMSPARSER\SMSPARSER\DEBUG\WRAPP.OBJ
^C:\USERS\RYSZARD\DOCUMENTS\VISUAL STUDIO 2017\PROJECTS\SMSPARSER\SMSPARSER\SMSPARSER.CPP|C:\USERS\RYSZARD\DOCUMENTS\VISUAL STUDIO 2017\PROJECTS\SMSPARSER\SMSPARSER\SQLCONNECTION.CPP|C:\USERS\RYSZARD\DOCUMENTS\VISUAL STUDIO 2017\PROJECTS\SMSPARSER\SMSPARSER\WRAPP.CPP
C:\USERS\RYSZARD\DOCUMENTS\VISUAL STUDIO 2017\PROJECTS\SMSPARSER\SMSPARSER\DEBUG\VC141.PDB
C:\USERS\RYSZARD\DOCUMENTS\VISUAL STUDIO 2017\PROJECTS\SMSPARSER\SMSPARSER\DEBUG\VC141.IDB
C:\USERS\RYSZARD\DOCUMENTS\VISUAL STUDIO 2017\PROJECTS\SMSPARSER\SMSPARSER\DEBUG\SQLCONNECTION.OBJ
C:\USERS\RYSZARD\DOCUMENTS\VISUAL STUDIO 2017\PROJECTS\SMSPARSER\SMSPARSER\DEBUG\WRAPP.OBJ
^C:\USERS\RYSZARD\DOCUMENTS\VISUAL STUDIO 2017\PROJECTS\SMSPARSER\SMSPARSER\SQLCONNECTION.CPP
C:\USERS\RYSZARD\DOCUMENTS\VISUAL STUDIO 2017\PROJECTS\SMSPARSER\SMSPARSER\DEBUG\VC141.PDB
